%YAML 1.1
%TAG !u! tag:unity3d.com,2011:
--- !u!114 &11400000
MonoBehaviour:
  m_ObjectHideFlags: 0
  m_CorrespondingSourceObject: {fileID: 0}
  m_PrefabInstance: {fileID: 0}
  m_PrefabAsset: {fileID: 0}
  m_GameObject: {fileID: 0}
  m_Enabled: 1
  m_EditorHideFlags: 0
  m_Script: {fileID: 11500000, guid: 27b4532a2427a394f8c970726f283cea, type: 3}
  m_Name: Mars
  m_EditorClassIdentifier: 
  m_Image: {fileID: -1660291081, guid: e4cb7d6cd11ef6d4f8acf141e1f42f16, type: 3}
  m_Color: {r: 1, g: 1, b: 1, a: 0.36078432}
  m_Scale: 1
  m_AngularSpeed: -40
  m_Gravity: -0.5
