%YAML 1.1
%TAG !u! tag:unity3d.com,2011:
--- !u!114 &11400000
MonoBehaviour:
  m_ObjectHideFlags: 0
  m_CorrespondingSourceObject: {fileID: 0}
  m_PrefabInstance: {fileID: 0}
  m_PrefabAsset: {fileID: 0}
  m_GameObject: {fileID: 0}
  m_Enabled: 1
  m_EditorHideFlags: 0
  m_Script: {fileID: 11500000, guid: 27b4532a2427a394f8c970726f283cea, type: 3}
  m_Name: Mousus
  m_EditorClassIdentifier: 
  m_Image: {fileID: 21300000, guid: 7c1077fbc54e3ef4eb3fb0c48dacd99d, type: 3}
  m_Color: {r: 0, g: 1, b: 0, a: 1}
  m_Scale: 3
  m_AngularSpeed: 60
  m_Gravity: 0.5
