%YAML 1.1
%TAG !u! tag:unity3d.com,2011:
--- !u!78 &1
TagManager:
  serializedVersion: 3
  tags: []
  layers:
  - Default
  - TransparentFX
  - Ignore Raycast
  - Player
  - Water
  - UI
  - Parets
  - Enemics
  - Pushbox
  - Hurtbox
  - 
  - 
  - 
  - 
  - 
  - 
  - 
  - 
  - 
  - 
  - 
  - 
  - 
  - 
  - 
  - 
  - 
  - 
  - 
  - 
  - 
  - 
  m_SortingLayers:
  - name: Default
    uniqueID: 0
    locked: 0
  m_RenderingLayers:
  - Default
  - Light Layer 1
  - Light Layer 2
  - Light Layer 3
  - Light Layer 4
  - Light Layer 5
  - Light Layer 6
  - Light Layer 7
  - Decal Layer default
  - Decal Layer 1
  - Decal Layer 2
  - Decal Layer 3
  - Decal Layer 4
  - Decal Layer 5
  - Decal Layer 6
  - Decal Layer 7
